{
  "defaultSeverity": "error",
  "extends": [
    "tslint-config-standard"
  ],
  "jsRules": {
    "no-unused-expression": true
  },
  "rules": {
    "prettier": true,
    "indent": [true,"spaces",2],
    "quotemark": [true, "single"],
    "member-access": [false],
    "ordered-imports": [false],
    "max-line-length": [true, 150],
    "member-ordering": [false],
    "arrow-parens": false,
    "object-literal-sort-keys": false,
    "no-empty": [false],
    "radix": [false],
    "semicolon": [true, "never"],
    "no-inferrable-types": true,
    "noImplicitReturns": true,
    "strict": true,
    "noUnusedLocals": true
  },
  "rulesDirectory": []
}